{
	"info": {
		"_postman_id": "c9c8e55e-2702-4cda-aaf1-cf98c64d675b",
		"name": "Liberary-Management-System",
		"schema": "https://schema.getpostman.com/json/collection/v2.1.0/collection.json"
	},
	"item": [
		{
			"name": "Auth",
			"item": [
				{
					"name": "Sign In",
					"request": {
						"method": "POST",
						"header": [
							{
								"key": "Content-Type",
								"value": "application/json",
								"type": "text"
							}
						],
						"body": {
							"mode": "raw",
							"raw": "{\"email\": \"example@example.com\", \"password\": \"password123\", \"role\": \"ADMIN\"}"
						},
						"url": {
							"raw": "{{base_url}}/auth/sign-in",
							"host": [
								"{{base_url}}"
							],
							"path": [
								"auth",
								"sign-in"
							]
						}
					},
					"response": []
				},
				{
					"name": "Sign Up",
					"request": {
						"method": "POST",
						"header": [
							{
								"key": "Content-Type",
								"value": "application/json",
								"type": "text"
							}
						],
						"body": {
							"mode": "raw",
							"raw": "{\"email\": \"newuser@example.com\", \"password\": \"password123\", \"name\": \"New User\"}"
						},
						"url": {
							"raw": "{{base_url}}/auth/sign-up",
							"host": [
								"{{base_url}}"
							],
							"path": [
								"auth",
								"sign-up"
							]
						}
					},
					"response": []
				},
				{
					"name": "Resend OTP",
					"request": {
						"method": "POST",
						"header": [
							{
								"key": "Content-Type",
								"value": "application/json",
								"type": "text"
							}
						],
						"body": {
							"mode": "raw",
							"raw": "{\"email\": \"example@example.com\", \"useCase\": \"exampleUseCase\"}"
						},
						"url": {
							"raw": "{{base_url}}/auth/resend-otp",
							"host": [
								"{{base_url}}"
							],
							"path": [
								"auth",
								"resend-otp"
							]
						}
					},
					"response": []
				},
				{
					"name": "Verify OTP",
					"request": {
						"method": "POST",
						"header": [
							{
								"key": "Content-Type",
								"value": "application/json",
								"type": "text"
							}
						],
						"body": {
							"mode": "raw",
							"raw": "{\"email\": \"example@example.com\", \"otp\": \"123456\", \"useCase\": \"exampleUseCase\"}"
						},
						"url": {
							"raw": "{{base_url}}/auth/verify-otp",
							"host": [
								"{{base_url}}"
							],
							"path": [
								"auth",
								"verify-otp"
							]
						}
					},
					"response": []
				},
				{
					"name": "Forgot Password",
					"request": {
						"method": "POST",
						"header": [
							{
								"key": "Content-Type",
								"value": "application/json",
								"type": "text"
							}
						],
						"body": {
							"mode": "raw",
							"raw": "{\"email\": \"example@example.com\"}"
						},
						"url": {
							"raw": "{{base_url}}/auth/forgot-password",
							"host": [
								"{{base_url}}"
							],
							"path": [
								"auth",
								"forgot-password"
							]
						}
					},
					"response": []
				},
				{
					"name": "Reset Password",
					"request": {
						"method": "POST",
						"header": [
							{
								"key": "Content-Type",
								"value": "application/json",
								"type": "text"
							}
						],
						"body": {
							"mode": "raw",
							"raw": "{\"email\": \"example@example.com\", \"otp\": \"123456\", \"password\": \"newpassword123\"}"
						},
						"url": {
							"raw": "{{base_url}}/auth/reset-password",
							"host": [
								"{{base_url}}"
							],
							"path": [
								"auth",
								"reset-password"
							]
						}
					},
					"response": []
				}
			]
		},
		{
			"name": "Upload",
			"item": [
				{
					"name": "Upload File",
					"request": {
						"method": "POST",
						"header": [
							{
								"key": "Authorization",
								"value": "Bearer {token}",
								"type": "text",
								"disabled": true
							},
							{
								"key": "Content-Type",
								"value": "multipart/form-data",
								"type": "text"
							}
						],
						"body": {
							"mode": "formdata",
							"formdata": [
								{
									"key": "file",
									"type": "file",
									"src": []
								}
							]
						},
						"url": {
							"raw": "{{base_url}}/upload",
							"host": [
								"{{base_url}}"
							],
							"path": [
								"upload"
							]
						}
					},
					"response": []
				}
			]
		},
		{
			"name": "User",
			"item": [
				{
					"name": "Create User by Admin",
					"request": {
						"method": "POST",
						"header": [
							{
								"key": "Authorization",
								"value": "Bearer {token}",
								"type": "text"
							},
							{
								"key": "Content-Type",
								"value": "application/json",
								"type": "text"
							}
						],
						"body": {
							"mode": "raw",
							"raw": "{\"email\": \"example@example.com\", \"password\": \"password123\", \"name\": \"John Doe\", \"role\": \"ADMIN\"}"
						},
						"url": {
							"raw": "{{base_url}}/users",
							"host": [
								"{{base_url}}"
							],
							"path": [
								"users"
							]
						}
					},
					"response": [
						{
							"name": "Success Response",
							"originalRequest": {
								"method": "POST",
								"header": [
									{
										"key": "Authorization",
										"value": "Bearer {token}",
										"type": "text"
									},
									{
										"key": "Content-Type",
										"value": "application/json",
										"type": "text"
									}
								],
								"body": {
									"mode": "raw",
									"raw": "{\"email\": \"example@example.com\", \"password\": \"password123\", \"name\": \"John Doe\", \"role\": \"ADMIN\"}"
								},
								"url": {
									"raw": "{{base_url}}/users",
									"host": [
										"{{base_url}}"
									],
									"path": [
										"users"
									]
								}
							},
							"status": "OK",
							"code": 200,
							"_postman_previewlanguage": "Text",
							"header": [],
							"cookie": [],
							"body": "{\"message\": \"User created successfully\", \"data\": {\"email\": \"example@example.com\", \"name\": \"John Doe\", \"role\": \"ADMIN\"}, \"code\": 200}"
						},
						{
							"name": "Error Response",
							"originalRequest": {
								"method": "POST",
								"header": [
									{
										"key": "Authorization",
										"value": "Bearer {token}",
										"type": "text"
									},
									{
										"key": "Content-Type",
										"value": "application/json",
										"type": "text"
									}
								],
								"body": {
									"mode": "raw",
									"raw": "{\"email\": \"example@example.com\", \"password\": \"password123\", \"name\": \"John Doe\", \"role\": \"ADMIN\"}"
								},
								"url": {
									"raw": "{{base_url}}/users",
									"host": [
										"{{base_url}}"
									],
									"path": [
										"users"
									]
								}
							},
							"status": "Bad Request",
							"code": 400,
							"_postman_previewlanguage": "Text",
							"header": [],
							"cookie": [],
							"body": "{\"message\": \"User already exists\", \"data\": null, \"code\": 400}"
						}
					]
				},
				{
					"name": "Get All Users",
					"request": {
						"method": "GET",
						"header": [
							{
								"key": "Authorization",
								"value": "Bearer {token}",
								"type": "text"
							},
							{
								"key": "Content-Type",
								"value": "application/json",
								"type": "text"
							}
						],
						"url": {
							"raw": "{{base_url}}/users?page=1&limit=15&searchKey=&role=ADMIN",
							"host": [
								"{{base_url}}"
							],
							"path": [
								"users"
							],
							"query": [
								{
									"key": "page",
									"value": "1"
								},
								{
									"key": "limit",
									"value": "15"
								},
								{
									"key": "searchKey",
									"value": ""
								},
								{
									"key": "role",
									"value": "ADMIN"
								}
							]
						}
					},
					"response": [
						{
							"name": "Example Response",
							"originalRequest": {
								"method": "GET",
								"header": [
									{
										"key": "Authorization",
										"value": "Bearer {token}",
										"type": "text"
									},
									{
										"key": "Content-Type",
										"value": "application/json",
										"type": "text"
									}
								],
								"url": {
									"raw": "{{base_url}}/users",
									"host": [
										"{{base_url}}"
									],
									"path": [
										"users"
									]
								}
							},
							"status": "OK",
							"code": 200,
							"_postman_previewlanguage": "Text",
							"header": [],
							"cookie": [],
							"body": "{\"message\": \"Users fetched successfully\", \"data\": {\"items\": [{\"email\": \"example@example.com\", \"name\": \"John Doe\", \"role\": \"ADMIN\"}], \"pageInfo\": {\"page\": 1, \"limit\": 15, \"nextCursor\": \"nextCursorValue\", \"beforeCursor\": \"beforeCursorValue\", \"totalCount\": 100, \"hasNext\": true, \"hasBefore\": false, \"direction\": \"FORWARD\"}}, \"code\": 200}"
						}
					]
				},
				{
					"name": "Get User by Slug",
					"request": {
						"method": "GET",
						"header": [
							{
								"key": "Authorization",
								"value": "Bearer {token}",
								"type": "text"
							}
						],
						"url": {
							"raw": "{{base_url}}/users/{slug}",
							"host": [
								"{{base_url}}"
							],
							"path": [
								"users",
								"{slug}"
							]
						}
					},
					"response": []
				},
				{
					"name": "Delete User by Admin",
					"request": {
						"method": "DELETE",
						"header": [
							{
								"key": "Authorization",
								"value": "Bearer {token}",
								"type": "text"
							}
						],
						"url": {
							"raw": "{{base_url}}/users/{slug}",
							"host": [
								"{{base_url}}"
							],
							"path": [
								"users",
								"{slug}"
							]
						}
					},
					"response": []
				},
				{
					"name": "Update User by Admin",
					"request": {
						"method": "PATCH",
						"header": [
							{
								"key": "Authorization",
								"value": "Bearer {token}",
								"type": "text"
							},
							{
								"key": "Content-Type",
								"value": "application/json",
								"type": "text"
							}
						],
						"body": {
							"mode": "raw",
							"raw": "{\"email\": \"newemail@example.com\", \"password\": \"newpassword123\", \"name\": \"Jane Doe\", \"role\": \"BORROWER\"}"
						},
						"url": {
							"raw": "{{base_url}}/users/{slug}",
							"host": [
								"{{base_url}}"
							],
							"path": [
								"users",
								"{slug}"
							]
						}
					},
					"response": []
				},
				{
					"name": "ME",
					"request": {
						"method": "GET",
						"header": [
							{
								"key": "Authorization",
								"value": "Bearer {token}",
								"type": "text"
							}
						],
						"url": {
							"raw": "{{base_url}}/users/me",
							"host": [
								"{{base_url}}"
							],
							"path": [
								"users",
								"me"
							]
						}
					},
					"response": []
				}
			]
		},
		{
			"name": "Book",
			"item": [
				{
					"name": "Get Single Book Author",
					"request": {
						"method": "GET",
						"header": [],
						"url": {
							"raw": "{{base_url}}/book/author/{{slug}}",
							"host": [
								"{{base_url}}"
							],
							"path": [
								"book",
								"author",
								"{{slug}}"
							]
						}
					},
					"response": []
				},
				{
					"name": "Get Book Authors",
					"request": {
						"method": "GET",
						"header": [],
						"url": {
							"raw": "{{base_url}}/book/author",
							"host": [
								"{{base_url}}"
							],
							"path": [
								"book",
								"author"
							]
						}
					},
					"response": []
				},
				{
					"name": "Delete a Book Author",
					"request": {
						"method": "DELETE",
						"header": [
							{
								"key": "Authorization",
								"value": "Bearer {token}",
								"type": "text"
							}
						],
						"url": {
							"raw": "{{base_url}}/book/author/{{slug}}",
							"host": [
								"{{base_url}}"
							],
							"path": [
								"book",
								"author",
								"{{slug}}"
							]
						}
					},
					"response": []
				},
				{
					"name": "Update a Book Author",
					"request": {
						"method": "PATCH",
						"header": [
							{
								"key": "Authorization",
								"value": "Bearer {token}",
								"type": "text"
							},
							{
								"key": "Content-Type",
								"value": "application/json",
								"type": "text"
							}
						],
						"body": {
							"mode": "raw",
							"raw": "{\n    \"name\": \"{name}\",\n    \"description\": \"{description}\",\n    \"avatar\": \"{avatar}\"\n}"
						},
						"url": {
							"raw": "{{base_url}}/book/author/{{slug}}",
							"host": [
								"{{base_url}}"
							],
							"path": [
								"book",
								"author",
								"{{slug}}"
							]
						}
					},
					"response": []
				},
				{
					"name": "Create a Book Author",
					"request": {
						"method": "POST",
						"header": [
							{
								"key": "Authorization",
								"value": "Bearer {token}",
								"type": "text"
							},
							{
								"key": "Content-Type",
								"value": "application/json",
								"type": "text"
							}
						],
						"body": {
							"mode": "raw",
							"raw": "{\n    \"name\": \"{name}\",\n    \"description\": \"{description}\",\n    \"avatar\": \"{avatar}\"\n}"
						},
						"url": {
							"raw": "{{base_url}}/book/author",
							"host": [
								"{{base_url}}"
							],
							"path": [
								"book",
								"author"
							]
						}
					},
					"response": []
				},
				{
					"name": "Delete a Book",
					"request": {
						"method": "DELETE",
						"header": [
							{
								"key": "Authorization",
								"value": "Bearer {token}",
								"type": "text"
							}
						],
						"url": {
							"raw": "{{base_url}}/book/{{id}}",
							"host": [
								"{{base_url}}"
							],
							"path": [
								"book",
								"{{id}}"
							]
						}
					},
					"response": []
				},
				{
					"name": "Update a Book",
					"request": {
						"method": "PATCH",
						"header": [
							{
								"key": "Authorization",
								"value": "Bearer {token}",
								"type": "text"
							},
							{
								"key": "Content-Type",
								"value": "application/json",
								"type": "text"
							}
						],
						"body": {
							"mode": "raw",
							"raw": "{\n    \"title\": \"{title}\",\n    \"ISBN\": \"{ISBN}\",\n    \"bookCover\": \"{bookCover}\",\n    \"totalQuantity\": {totalQuantity},\n    \"description\": \"{description}\",\n    \"shelfLocation\": \"{shelfLocation}\",\n    \"authorId\": \"{authorId}\"\n}"
						},
						"url": {
							"raw": "{{base_url}}/book/{{id}}",
							"host": [
								"{{base_url}}"
							],
							"path": [
								"book",
								"{{id}}"
							]
						}
					},
					"response": []
				},
				{
					"name": "Create Book",
					"request": {
						"method": "POST",
						"header": [],
						"body": {
							"mode": "raw",
							"raw": "{\"title\":\"Book Title\",\"ISBN\":\"1234567890\",\"bookCover\":\"book-cover.jpg\",\"totalQuantity\":10,\"description\":\"Book description\",\"shelfLocation\":\"A1\",\"authorId\":\"your-author-id\" }"
						},
						"url": {
							"raw": "{{base_url}}/books/book",
							"host": [
								"{{base_url}}"
							],
							"path": [
								"books",
								"book"
							]
						}
					},
					"response": []
				},
				{
					"name": "Book a Book",
					"request": {
						"method": "POST",
						"header": [],
						"body": {
							"mode": "raw",
							"raw": "{\"returnDate\": 1643318400 }"
						},
						"url": {
							"raw": "{{base_url}}/books/{{slug}}",
							"host": [
								"{{base_url}}"
							],
							"path": [
								"books",
								"{{slug}}"
							]
						}
					},
					"response": []
				},
				{
					"name": "Return Book",
					"request": {
						"method": "POST",
						"header": [],
						"url": {
							"raw": "{{base_url}}/books/{{slug}}/return",
							"host": [
								"{{base_url}}"
							],
							"path": [
								"books",
								"{{slug}}",
								"return"
							]
						}
					},
					"response": []
				},
				{
					"name": "Get Book Borrowed Timeline",
					"request": {
						"method": "GET",
						"header": [],
						"url": {
							"raw": "{{base_url}}/books/{{slug}}/history?cursor={{cursor}}&direction=asc&limit=10",
							"host": [
								"{{base_url}}"
							],
							"path": [
								"books",
								"{{slug}}",
								"history"
							],
							"query": [
								{
									"key": "cursor",
									"value": "{{cursor}}"
								},
								{
									"key": "direction",
									"value": "asc"
								},
								{
									"key": "limit",
									"value": "10"
								}
							]
						}
					},
					"response": []
				},
				{
					"name": "Get Single Book",
					"request": {
						"method": "GET",
						"header": [],
						"url": {
							"raw": "http://localhost:3000/books/{{slug}}",
							"protocol": "http",
							"host": [
								"localhost"
							],
							"port": "3000",
							"path": [
								"books",
								"{{slug}}"
							]
						}
					},
					"response": []
				},
				{
					"name": "Get All Books",
					"request": {
						"method": "GET",
						"header": [],
						"url": {
							"raw": "{{base_url}}/books?page=1&limit=15&searchKey=search&authorId={{authorId}}&available=true&sortBy={\"numberOfBorrowed\":\"asc\"}",
							"host": [
								"{{base_url}}"
							],
							"path": [
								"books"
							],
							"query": [
								{
									"key": "page",
									"value": "1"
								},
								{
									"key": "limit",
									"value": "15"
								},
								{
									"key": "searchKey",
									"value": "search"
								},
								{
									"key": "authorId",
									"value": "{{authorId}}"
								},
								{
									"key": "available",
									"value": "true"
								},
								{
									"key": "sortBy",
									"value": "{\"numberOfBorrowed\":\"asc\"}"
								}
							]
						}
					},
					"response": []
				}
			]
		}
	]
}